2018-03-30 06:34:25,104 INFO  org.apache.flink.runtime.taskmanager.TaskManager              - --------------------------------------------------------------------------------
2018-03-30 06:34:25,113 INFO  org.apache.flink.runtime.taskmanager.TaskManager              -  Starting TaskManager (Version: 1.4.0, Rev:3a9d9f2, Date:06.12.2017 @ 11:08:40 UTC)
2018-03-30 06:34:25,114 INFO  org.apache.flink.runtime.taskmanager.TaskManager              -  OS current user: azureuser
2018-03-30 06:34:25,114 INFO  org.apache.flink.runtime.taskmanager.TaskManager              -  Current Hadoop/Kerberos user: <no hadoop dependency found>
2018-03-30 06:34:25,114 INFO  org.apache.flink.runtime.taskmanager.TaskManager              -  JVM: OpenJDK 64-Bit Server VM - Oracle Corporation - 1.8/25.151-b12
2018-03-30 06:34:25,114 INFO  org.apache.flink.runtime.taskmanager.TaskManager              -  Maximum heap size: 2048 MiBytes
2018-03-30 06:34:25,115 INFO  org.apache.flink.runtime.taskmanager.TaskManager              -  JAVA_HOME: /usr/lib/jvm/java-8-openjdk-amd64/
2018-03-30 06:34:25,115 INFO  org.apache.flink.runtime.taskmanager.TaskManager              -  No Hadoop Dependency available
2018-03-30 06:34:25,115 INFO  org.apache.flink.runtime.taskmanager.TaskManager              -  JVM Options:
2018-03-30 06:34:25,115 INFO  org.apache.flink.runtime.taskmanager.TaskManager              -     -XX:+UseG1GC
2018-03-30 06:34:25,116 INFO  org.apache.flink.runtime.taskmanager.TaskManager              -     -Xms2048M
2018-03-30 06:34:25,116 INFO  org.apache.flink.runtime.taskmanager.TaskManager              -     -Xmx2048M
2018-03-30 06:34:25,117 INFO  org.apache.flink.runtime.taskmanager.TaskManager              -     -XX:MaxDirectMemorySize=8388607T
2018-03-30 06:34:25,117 INFO  org.apache.flink.runtime.taskmanager.TaskManager              -     -Dlog.file=/home/azureuser/flink-1.4.0/log/flink-azureuser-taskmanager-0-SMART-F-Slave1.log
2018-03-30 06:34:25,117 INFO  org.apache.flink.runtime.taskmanager.TaskManager              -     -Dlog4j.configuration=file:/home/azureuser/flink-1.4.0/conf/log4j.properties
2018-03-30 06:34:25,117 INFO  org.apache.flink.runtime.taskmanager.TaskManager              -     -Dlogback.configurationFile=file:/home/azureuser/flink-1.4.0/conf/logback.xml
2018-03-30 06:34:25,117 INFO  org.apache.flink.runtime.taskmanager.TaskManager              -  Program Arguments:
2018-03-30 06:34:25,117 INFO  org.apache.flink.runtime.taskmanager.TaskManager              -     --configDir
2018-03-30 06:34:25,117 INFO  org.apache.flink.runtime.taskmanager.TaskManager              -     /home/azureuser/flink-1.4.0/conf
2018-03-30 06:34:25,118 INFO  org.apache.flink.runtime.taskmanager.TaskManager              -  Classpath: /home/azureuser/flink-1.4.0/lib/flink-python_2.11-1.4.0.jar:/home/azureuser/flink-1.4.0/lib/log4j-1.2.17.jar:/home/azureuser/flink-1.4.0/lib/slf4j-log4j12-1.7.7.jar:/home/azureuser/flink-1.4.0/lib/flink-dist_2.11-1.4.0.jar:::
2018-03-30 06:34:25,118 INFO  org.apache.flink.runtime.taskmanager.TaskManager              - --------------------------------------------------------------------------------
2018-03-30 06:34:25,126 INFO  org.apache.flink.runtime.taskmanager.TaskManager              - Registered UNIX signal handlers for [TERM, HUP, INT]
2018-03-30 06:34:25,141 INFO  org.apache.flink.runtime.taskmanager.TaskManager              - Maximum number of open file descriptors is 1048576
2018-03-30 06:34:25,225 INFO  org.apache.flink.runtime.taskmanager.TaskManager              - Loading configuration from /home/azureuser/flink-1.4.0/conf
2018-03-30 06:34:25,237 INFO  org.apache.flink.configuration.GlobalConfiguration            - Loading configuration property: jobmanager.rpc.address, SMART-F-Master
2018-03-30 06:34:25,238 INFO  org.apache.flink.configuration.GlobalConfiguration            - Loading configuration property: jobmanager.rpc.port, 6123
2018-03-30 06:34:25,238 INFO  org.apache.flink.configuration.GlobalConfiguration            - Loading configuration property: jobmanager.heap.mb, 1024
2018-03-30 06:34:25,238 INFO  org.apache.flink.configuration.GlobalConfiguration            - Loading configuration property: taskmanager.heap.mb, 2048
2018-03-30 06:34:25,238 INFO  org.apache.flink.configuration.GlobalConfiguration            - Loading configuration property: taskmanager.numberOfTaskSlots, 2
2018-03-30 06:34:25,238 INFO  org.apache.flink.configuration.GlobalConfiguration            - Loading configuration property: taskmanager.memory.preallocate, false
2018-03-30 06:34:25,239 INFO  org.apache.flink.configuration.GlobalConfiguration            - Loading configuration property: parallelism.default, 1
2018-03-30 06:34:25,239 INFO  org.apache.flink.configuration.GlobalConfiguration            - Loading configuration property: web.port, 8081
2018-03-30 06:34:25,246 INFO  org.apache.flink.configuration.GlobalConfiguration            - Loading configuration property: blob.server.port, 6124
2018-03-30 06:34:25,247 INFO  org.apache.flink.configuration.GlobalConfiguration            - Loading configuration property: query.server.port, 6125
2018-03-30 06:34:25,265 INFO  org.apache.flink.core.fs.FileSystem                           - Hadoop is not in the classpath/dependencies. The extended set of supported File Systems via Hadoop is not available.
2018-03-30 06:34:25,337 INFO  org.apache.flink.runtime.security.modules.HadoopModuleFactory  - Cannot create Hadoop Security Module because Hadoop cannot be found in the Classpath.
2018-03-30 06:34:25,446 INFO  org.apache.flink.runtime.security.SecurityUtils               - Cannot install HadoopSecurityContext because Hadoop cannot be found in the Classpath.
2018-03-30 06:34:25,554 INFO  org.apache.flink.runtime.util.LeaderRetrievalUtils            - Trying to select the network interface and address to use by connecting to the leading JobManager.
2018-03-30 06:34:25,555 INFO  org.apache.flink.runtime.util.LeaderRetrievalUtils            - TaskManager will try to connect for 10000 milliseconds before falling back to heuristics
2018-03-30 06:34:25,558 INFO  org.apache.flink.runtime.net.ConnectionUtils                  - Retrieved new target address SMART-F-Master/10.2.14.6:6123.
2018-03-30 06:34:25,990 INFO  org.apache.flink.runtime.net.ConnectionUtils                  - Trying to connect to address SMART-F-Master/10.2.14.6:6123
2018-03-30 06:34:25,993 INFO  org.apache.flink.runtime.taskmanager.TaskManager              - TaskManager will use hostname/address 'SMART-F-Slave1' (10.2.14.7) for communication.
2018-03-30 06:34:26,007 INFO  org.apache.flink.runtime.taskmanager.TaskManager              - Starting TaskManager
2018-03-30 06:34:26,008 INFO  org.apache.flink.runtime.taskmanager.TaskManager              - Starting TaskManager actor system at SMART-F-Slave1:40487.
2018-03-30 06:34:26,011 INFO  org.apache.flink.runtime.taskmanager.TaskManager              - Trying to start actor system at smart-f-slave1:40487
2018-03-30 06:34:27,646 INFO  akka.event.slf4j.Slf4jLogger                                  - Slf4jLogger started
2018-03-30 06:34:27,877 INFO  akka.remote.Remoting                                          - Starting remoting
2018-03-30 06:34:28,358 INFO  akka.remote.Remoting                                          - Remoting started; listening on addresses :[akka.tcp://flink@smart-f-slave1:40487]
2018-03-30 06:34:28,386 INFO  org.apache.flink.runtime.taskmanager.TaskManager              - Actor system started at akka.tcp://flink@smart-f-slave1:40487
2018-03-30 06:34:28,416 INFO  org.apache.flink.runtime.metrics.MetricRegistryImpl           - No metrics reporter configured, no metrics will be exposed/reported.
2018-03-30 06:34:28,434 INFO  org.apache.flink.runtime.taskmanager.TaskManager              - Starting TaskManager actor
2018-03-30 06:34:28,446 INFO  org.apache.flink.runtime.io.network.netty.NettyConfig         - NettyConfig [server address: SMART-F-Slave1/10.2.14.7, server port: 0, ssl enabled: false, memory segment size (bytes): 32768, transport type: NIO, number of server threads: 2 (manual), number of client threads: 2 (manual), server connect backlog: 0 (use Netty's default), client connect timeout (sec): 120, send/receive buffer size (bytes): 0 (use Netty's default)]
2018-03-30 06:34:28,456 INFO  org.apache.flink.runtime.taskexecutor.TaskManagerConfiguration  - Messages have a max timeout of 10000 ms
2018-03-30 06:34:28,468 INFO  org.apache.flink.runtime.taskexecutor.TaskManagerServices     - Temporary file directory '/tmp': total 29 GB, usable 25 GB (86.21% usable)
2018-03-30 06:34:28,863 INFO  org.apache.flink.runtime.io.network.buffer.NetworkBufferPool  - Allocated 203 MB for network buffer pool (number of memory segments: 6509, bytes per segment: 32768).
2018-03-30 06:34:29,220 WARN  org.apache.flink.runtime.query.QueryableStateUtils            - Could not load Queryable State Client Proxy. Probable reason: flink-queryable-state-runtime is not in the classpath. Please put the corresponding jar from the opt to the lib folder.
2018-03-30 06:34:29,226 WARN  org.apache.flink.runtime.query.QueryableStateUtils            - Could not load Queryable State Server. Probable reason: flink-queryable-state-runtime is not in the classpath. Please put the corresponding jar from the opt to the lib folder.
2018-03-30 06:34:29,227 INFO  org.apache.flink.runtime.io.network.NetworkEnvironment        - Starting the network environment and its components.
2018-03-30 06:34:29,370 INFO  org.apache.flink.runtime.io.network.netty.NettyClient         - Successful initialization (took 109 ms).
2018-03-30 06:34:29,514 INFO  org.apache.flink.runtime.io.network.netty.NettyServer         - Successful initialization (took 144 ms). Listening on SocketAddress /10.2.14.7:44407.
2018-03-30 06:34:29,530 WARN  org.apache.flink.runtime.taskmanager.TaskManagerLocation      - No hostname could be resolved for the IP address 10.2.14.7, using IP address as host name. Local input split assignment (such as for HDFS files) may be impacted.
2018-03-30 06:34:29,739 INFO  org.apache.flink.runtime.taskexecutor.TaskManagerServices     - Limiting managed memory to 0.7 of the currently free heap space (1286 MB), memory will be allocated lazily.
2018-03-30 06:34:29,751 INFO  org.apache.flink.runtime.io.disk.iomanager.IOManager          - I/O manager uses directory /tmp/flink-io-f8ba6241-bc79-452e-8089-3c3e17fce06c for spill files.
2018-03-30 06:34:29,759 INFO  org.apache.flink.runtime.filecache.FileCache                  - User file cache uses directory /tmp/flink-dist-cache-2c96653b-f749-4b0a-81e1-e270cee427ca
2018-03-30 06:34:30,004 INFO  org.apache.flink.runtime.filecache.FileCache                  - User file cache uses directory /tmp/flink-dist-cache-2e20dc9c-3866-4127-9def-9e3271dccdf0
2018-03-30 06:34:30,046 INFO  org.apache.flink.runtime.taskmanager.TaskManager              - Starting TaskManager actor at akka://flink/user/taskmanager#-928678164.
2018-03-30 06:34:30,048 INFO  org.apache.flink.runtime.taskmanager.TaskManager              - TaskManager data connection information: 6bbaed3378ac1e99cc409d859d5ae77b @ 10.2.14.7 (dataPort=44407)
2018-03-30 06:34:30,048 INFO  org.apache.flink.runtime.taskmanager.TaskManager              - TaskManager has 2 task slot(s).
2018-03-30 06:34:30,055 INFO  org.apache.flink.runtime.taskmanager.TaskManager              - Memory usage stats: [HEAP: 213/2048/2048 MB, NON HEAP: 29/30/-1 MB (used/committed/max)]
2018-03-30 06:34:30,067 INFO  org.apache.flink.runtime.taskmanager.TaskManager              - Trying to register at JobManager akka.tcp://flink@smart-f-master:6123/user/jobmanager (attempt 1, timeout: 500 milliseconds)
2018-03-30 06:34:30,618 INFO  org.apache.flink.runtime.taskmanager.TaskManager              - Trying to register at JobManager akka.tcp://flink@smart-f-master:6123/user/jobmanager (attempt 2, timeout: 1000 milliseconds)
2018-03-30 06:34:30,654 INFO  org.apache.flink.runtime.taskmanager.TaskManager              - Successful registration at JobManager (akka.tcp://flink@smart-f-master:6123/user/jobmanager), starting network stack and library cache.
2018-03-30 06:34:30,683 INFO  org.apache.flink.runtime.taskmanager.TaskManager              - Determined BLOB server address to be SMART-F-Master/10.2.14.6:6124. Starting BLOB cache.
2018-03-30 06:34:30,702 INFO  org.apache.flink.runtime.blob.PermanentBlobCache              - Created BLOB cache storage directory /tmp/blobStore-fbd83e76-5e12-4f67-bf9b-7c1e7134ff47
2018-03-30 06:34:30,724 INFO  org.apache.flink.runtime.blob.TransientBlobCache              - Created BLOB cache storage directory /tmp/blobStore-9eca83fd-4cb1-40de-8ec1-3b04596445cf
2018-03-30 06:35:08,091 INFO  org.apache.flink.runtime.taskmanager.TaskManager              - Received task Source: Custom Source -> Flat Map (2/8)
2018-03-30 06:35:08,100 INFO  org.apache.flink.runtime.taskmanager.TaskManager              - Received task Source: Custom Source -> Flat Map (6/8)
2018-03-30 06:35:08,101 INFO  org.apache.flink.runtime.taskmanager.Task                     - Source: Custom Source -> Flat Map (2/8) (2d05d1567603647cffcb199e547a1c9e) switched from CREATED to DEPLOYING.
2018-03-30 06:35:08,104 INFO  org.apache.flink.runtime.taskmanager.Task                     - Creating FileSystem stream leak safety net for task Source: Custom Source -> Flat Map (2/8) (2d05d1567603647cffcb199e547a1c9e) [DEPLOYING]
2018-03-30 06:35:08,131 INFO  org.apache.flink.runtime.taskmanager.TaskManager              - Received task Keyed Reduce (2/8)
2018-03-30 06:35:08,110 INFO  org.apache.flink.runtime.taskmanager.Task                     - Source: Custom Source -> Flat Map (6/8) (35dd5b34274b3fb9ef5abedbc39a6835) switched from CREATED to DEPLOYING.
2018-03-30 06:35:08,143 INFO  org.apache.flink.runtime.taskmanager.Task                     - Creating FileSystem stream leak safety net for task Source: Custom Source -> Flat Map (6/8) (35dd5b34274b3fb9ef5abedbc39a6835) [DEPLOYING]
2018-03-30 06:35:08,141 INFO  org.apache.flink.runtime.taskmanager.Task                     - Keyed Reduce (2/8) (2d9b6507717882ae279a723c020d6c50) switched from CREATED to DEPLOYING.
2018-03-30 06:35:08,141 INFO  org.apache.flink.runtime.taskmanager.TaskManager              - Received task Keyed Reduce (3/8)
2018-03-30 06:35:08,144 INFO  org.apache.flink.runtime.taskmanager.Task                     - Creating FileSystem stream leak safety net for task Keyed Reduce (2/8) (2d9b6507717882ae279a723c020d6c50) [DEPLOYING]
2018-03-30 06:35:08,154 INFO  org.apache.flink.runtime.taskmanager.Task                     - Loading JAR files for task Keyed Reduce (2/8) (2d9b6507717882ae279a723c020d6c50) [DEPLOYING].
2018-03-30 06:35:08,155 INFO  org.apache.flink.runtime.taskmanager.Task                     - Loading JAR files for task Source: Custom Source -> Flat Map (6/8) (35dd5b34274b3fb9ef5abedbc39a6835) [DEPLOYING].
2018-03-30 06:35:08,158 INFO  org.apache.flink.runtime.taskmanager.Task                     - Loading JAR files for task Source: Custom Source -> Flat Map (2/8) (2d05d1567603647cffcb199e547a1c9e) [DEPLOYING].
2018-03-30 06:35:08,164 INFO  org.apache.flink.runtime.taskmanager.Task                     - Keyed Reduce (3/8) (0d56d53c82d097401f305f9f069e00bf) switched from CREATED to DEPLOYING.
2018-03-30 06:35:08,166 INFO  org.apache.flink.runtime.taskmanager.Task                     - Creating FileSystem stream leak safety net for task Keyed Reduce (3/8) (0d56d53c82d097401f305f9f069e00bf) [DEPLOYING]
2018-03-30 06:35:08,166 INFO  org.apache.flink.runtime.taskmanager.Task                     - Loading JAR files for task Keyed Reduce (3/8) (0d56d53c82d097401f305f9f069e00bf) [DEPLOYING].
2018-03-30 06:35:08,167 INFO  org.apache.flink.runtime.blob.BlobClient                      - Downloading 1eace09263975576b8b4902ac730029f/p-cd31dfef20fac6f6584aff4d10ebab3f4a0d8f51-e8b3298c432e816dc731f152f8c0305b from SMART-F-Master/10.2.14.6:6124
2018-03-30 06:35:11,132 INFO  org.apache.flink.runtime.taskmanager.Task                     - Attempting to cancel task Source: Custom Source -> Flat Map (2/8) (2d05d1567603647cffcb199e547a1c9e).
2018-03-30 06:35:11,132 INFO  org.apache.flink.runtime.taskmanager.Task                     - Source: Custom Source -> Flat Map (2/8) (2d05d1567603647cffcb199e547a1c9e) switched from DEPLOYING to CANCELING.
2018-03-30 06:35:11,206 INFO  org.apache.flink.runtime.taskmanager.Task                     - Attempting to cancel task Source: Custom Source -> Flat Map (6/8) (35dd5b34274b3fb9ef5abedbc39a6835).
2018-03-30 06:35:11,206 INFO  org.apache.flink.runtime.taskmanager.Task                     - Source: Custom Source -> Flat Map (6/8) (35dd5b34274b3fb9ef5abedbc39a6835) switched from DEPLOYING to CANCELING.
2018-03-30 06:35:11,298 INFO  org.apache.flink.runtime.taskmanager.Task                     - Attempting to cancel task Keyed Reduce (2/8) (2d9b6507717882ae279a723c020d6c50).
2018-03-30 06:35:11,298 INFO  org.apache.flink.runtime.taskmanager.Task                     - Keyed Reduce (2/8) (2d9b6507717882ae279a723c020d6c50) switched from DEPLOYING to CANCELING.
2018-03-30 06:35:11,308 INFO  org.apache.flink.runtime.taskmanager.Task                     - Attempting to cancel task Keyed Reduce (3/8) (0d56d53c82d097401f305f9f069e00bf).
2018-03-30 06:35:11,308 INFO  org.apache.flink.runtime.taskmanager.Task                     - Keyed Reduce (3/8) (0d56d53c82d097401f305f9f069e00bf) switched from DEPLOYING to CANCELING.
2018-03-30 06:35:11,432 INFO  org.apache.flink.runtime.taskmanager.Task                     - Keyed Reduce (3/8) (0d56d53c82d097401f305f9f069e00bf) switched from CANCELING to CANCELED.
2018-03-30 06:35:11,432 INFO  org.apache.flink.runtime.taskmanager.Task                     - Freeing task resources for Keyed Reduce (3/8) (0d56d53c82d097401f305f9f069e00bf).
2018-03-30 06:35:11,440 INFO  org.apache.flink.runtime.taskmanager.Task                     - Keyed Reduce (2/8) (2d9b6507717882ae279a723c020d6c50) switched from CANCELING to CANCELED.
2018-03-30 06:35:11,440 INFO  org.apache.flink.runtime.taskmanager.Task                     - Freeing task resources for Keyed Reduce (2/8) (2d9b6507717882ae279a723c020d6c50).
2018-03-30 06:35:11,443 INFO  org.apache.flink.runtime.taskmanager.Task                     - Source: Custom Source -> Flat Map (6/8) (35dd5b34274b3fb9ef5abedbc39a6835) switched from CANCELING to CANCELED.
2018-03-30 06:35:11,443 INFO  org.apache.flink.runtime.taskmanager.Task                     - Source: Custom Source -> Flat Map (2/8) (2d05d1567603647cffcb199e547a1c9e) switched from CANCELING to CANCELED.
2018-03-30 06:35:11,443 INFO  org.apache.flink.runtime.taskmanager.Task                     - Freeing task resources for Source: Custom Source -> Flat Map (2/8) (2d05d1567603647cffcb199e547a1c9e).
2018-03-30 06:35:11,443 INFO  org.apache.flink.runtime.taskmanager.Task                     - Freeing task resources for Source: Custom Source -> Flat Map (6/8) (35dd5b34274b3fb9ef5abedbc39a6835).
2018-03-30 06:35:11,487 INFO  org.apache.flink.runtime.taskmanager.Task                     - Ensuring all FileSystem streams are closed for task Source: Custom Source -> Flat Map (2/8) (2d05d1567603647cffcb199e547a1c9e) [CANCELED]
2018-03-30 06:35:11,487 INFO  org.apache.flink.runtime.taskmanager.Task                     - Ensuring all FileSystem streams are closed for task Keyed Reduce (2/8) (2d9b6507717882ae279a723c020d6c50) [CANCELED]
2018-03-30 06:35:11,487 INFO  org.apache.flink.runtime.taskmanager.Task                     - Ensuring all FileSystem streams are closed for task Source: Custom Source -> Flat Map (6/8) (35dd5b34274b3fb9ef5abedbc39a6835) [CANCELED]
2018-03-30 06:35:11,497 INFO  org.apache.flink.runtime.taskmanager.Task                     - Ensuring all FileSystem streams are closed for task Keyed Reduce (3/8) (0d56d53c82d097401f305f9f069e00bf) [CANCELED]
2018-03-30 06:35:11,497 INFO  org.apache.flink.runtime.taskmanager.TaskManager              - Un-registering task and sending final execution state CANCELED to JobManager for task Source: Custom Source -> Flat Map (2d05d1567603647cffcb199e547a1c9e)
2018-03-30 06:35:11,498 INFO  org.apache.flink.runtime.taskmanager.TaskManager              - Un-registering task and sending final execution state CANCELED to JobManager for task Keyed Reduce (2d9b6507717882ae279a723c020d6c50)
2018-03-30 06:35:11,506 INFO  org.apache.flink.runtime.taskmanager.TaskManager              - Un-registering task and sending final execution state CANCELED to JobManager for task Source: Custom Source -> Flat Map (35dd5b34274b3fb9ef5abedbc39a6835)
2018-03-30 06:35:11,507 INFO  org.apache.flink.runtime.taskmanager.TaskManager              - Un-registering task and sending final execution state CANCELED to JobManager for task Keyed Reduce (0d56d53c82d097401f305f9f069e00bf)
